…
mod1 <- mirt(data, 1, SE = TRUE)
```

### Tidy

```R
library(tidymirt)
tidy(mod1)
```

```
> tidy(mod1)
# A tibble: 22 x 6
   item_number item   term  estimate conf.low conf.high
         <int> <chr>  <chr>    <dbl>    <dbl>     <dbl>
 1           1 Item.1 a1       0.988    0.641     1.34 
 2           1 Item.1 d        1.86     1.60      2.11 
 3           1 Item.1 g        0       NA        NA    
 4           1 Item.1 u        1       NA        NA    
 5           2 Item.2 a1       1.08     0.750     1.41 
 6           2 Item.2 d        0.808    0.629     0.987
 7           2 Item.2 g        0       NA        NA    
 8           2 Item.2 u        1       NA        NA    
 9           3 Item.3 a1       1.71     1.08      2.33 
10           3 Item.3 d        1.80     1.40      2.20 
# … with 12 more rows
```
…
